Umsatzauskunft - gebuchte Umsätze,,,,,,,
Name,CHAOS COMPUTER CLUB E.V.,,,,,,
BLZ,20010020,,,,,,
Kontonummer,599090201,,,,,,
IBAN,DE41200100200599090201,,,,,,
Aktueller Kontostand,"12.345,12 ",,,,,,
Summe vorgemerkter Umsätze,"0,00 ",,,,,,
,,,,,,,
Buchungstag,Wertstellung,Umsatzart,Buchungsdetails,Auftraggeber,Empfänger,Betrag (),Saldo ()
31.08.12,31.08.12,Gutschrift,CHAOS-NR.      1234 ,VORNAME NACHNAMEßäöuÄÖÜ./,CHAOS COMPUTER CLUB E.V.,"36,00 ","12.345,12 "
31.08.12,31.08.12,Gutschrift,CHAOS-NR. 1234 JAHRESBEITRAG ,VORNAME NACHNAMEßäöuÄÖÜ./,CHAOS COMPUTER CLUB E.V.,"36,00 ","12.345,12 "
31.08.12,31.08.12,Gutschrift,JAHRESBEITRAG 2012/2013 CHAOS-NR. 1234 ,VORNAME NACHNAMEßäöuÄÖÜ./,CHAOS COMPUTER CLUB E.V.,"72,00 ","12.345,12 "
31.08.12,31.08.12,Gutschrift,CHAOS-NR 1234 JAHRESBEITRAG ,VORNAME NACHNAMEßäöuÄÖÜ./,CHAOS COMPUTER CLUB E.V.,"72,00 ","12.345,12 "
31.08.12,31.08.12,Überweisung,aaa/bbb/123 KOSTENERSTATTUNG ,CHAOS COMPUTER CLUB E.V.,VORNAME NACHNAMEßäöuÄÖÜ./,"-823,71 ","12.345,12 "
31.08.12,31.08.12,Gutschrift,CHAOS-NR. 1234 MITGLIEDSBEITRAG ,VORNAME NACHNAMEßäöuÄÖÜ./,CHAOS COMPUTER CLUB E.V.,"36,00 ","12.345,12 "
31.08.12,31.08.12,Dauerauftrag,MIETKOSTENZUSCHUSS ,CHAOS COMPUTER CLUB E.V.,CCCFFM E.V.,"-150,00 ","12.345,12 "
31.08.12,31.08.12,Dauerauftrag,MIETKOSTENZUSCHUSS ,CHAOS COMPUTER CLUB E.V.,CHAOS COMPUTER CLUB AACHEN,"-200,00 ","12.345,12 "
31.08.12,31.08.12,Dauerauftrag,MIETKOSTENZUSCHUSS ,CHAOS COMPUTER CLUB E.V.,CHAOS COMPUTER CLUB MAINZ,"-300,00 ","12.345,12 "
31.08.12,31.08.12,Dauerauftrag,MIETE Adresse 12 ,CHAOS COMPUTER CLUB E.V.,VERMIETER,"-435,54 ","12.345,12 "
31.08.12,31.08.12,Gutschrift,1234 chaos nummer Jahres und Aufnahmebeitrag Vorname Nachname ,Vorname Nachname,CHAOS COMPUTER CLUB E.V.,"82,00 ","12.345,12 "
30.08.12,30.08.12,Gutschrift,CHAOS-NR. 1234 ,VORNAME NACHNAMEßäöuÄÖÜ./,CHAOS COMPUTER CLUB E.V.,"72,00 ","12.345,12 "
30.08.12,30.08.12,Gutschrift,1234,VORNAME NACHNAMEßäöuÄÖÜ./,CHAOS COMPUTER CLUB E.V.,"72,00 ","12.345,12 "
30.08.12,30.08.12,Gutschrift,CHAOS-NR. 1234 ,VORNAME NACHNAMEßäöuÄÖÜ./,CHAOS COMPUTER CLUB E.V.,"72,00 ","12.345,12 "
30.08.12,30.08.12,Gutschrift,CHAOS-NR.  1234 AUFNAHMEGEBÜHR ,"NACHNAMEßäöuÄÖÜ./, VORNAME",CHAOS COMPUTER CLUB E.V.,"10,00 ","12.345,12 "
30.08.12,30.08.12,Gutschrift,CHAOS-NR. 1234 AUFNAHMEGEBU EHR ,VORNAME NACHNAMEßäöuÄÖÜ./,CHAOS COMPUTER CLUB E.V.,"10,00 ","12.345,12 "
30.08.12,30.08.12,Gutschrift,CHAOS-NR.  1234 ,"NACHNAMEßäöuÄÖÜ./, VORNAME",CHAOS COMPUTER CLUB E.V.,"72,00 ","12.345,12 "
30.08.12,30.08.12,Dauergutschrift,CHAOSNUMMER 1234 ,VORNAME NACHNAMEßäöuÄÖÜ./,CHAOS COMPUTER CLUB E.V.,"36,00 ","12.345,12 "
30.08.12,30.08.12,Lastschrift,FIRMA AB-123456 ,CHAOS COMPUTER CLUB E.V.,FIRMA,"-24,00 ","12.345,12 "
30.08.12,30.08.12,Gutschrift,MITGLIEDSCHAFT BIS 14.09.13 CHAOSNR 1234 ,VORNAME NACHNAMEßäöuÄÖÜ./,CHAOS COMPUTER CLUB E.V.,"72,00 ","12.345,12 "
30.08.12,30.08.12,Dauerauftrag,MIETKOSTENZUSCHUSS ,CHAOS COMPUTER CLUB E.V.,CCC MANNHEIM E.V.,"-150,00 ","12.345,12 "
29.08.12,29.08.12,Gutschrift,CHAOS-NR.     1234 ,VORNAME NACHNAMEßäöuÄÖÜ./,CHAOS COMPUTER CLUB E.V.,"10,00 ","12.345,12 "
29.08.12,29.08.12,Gutschrift,CHAOS-NR. 1234 MITGLIEDSBEITRAG ,VORNAME NACHNAMEßäöuÄÖÜ./,CHAOS COMPUTER CLUB E.V.,"36,00 ","12.345,12 "
29.08.12,29.08.12,Gutschrift,CHAOS-NR. 1234 MITGLIEDSBEITRAG ,VORNAME NACHNAMEßäöuÄÖÜ./,CHAOS COMPUTER CLUB E.V.,"72,00 ","12.345,12 "
29.08.12,29.08.12,Gutschrift,CHAOSNUMMER 1234 ,VORNAME NACHNAMEßäöuÄÖÜ./,CHAOS COMPUTER CLUB E.V.,"72,00 ","12.345,12 "
29.08.12,29.08.12,Überweisung,AAA/BBB/123 RECHNUNG 123456789 ,CHAOS COMPUTER CLUB E.V.,FIRMA,"-119,00 ","12.345,12 "
29.08.12,29.08.12,Gutschrift,CHAOSNUMMER 1234 BEITRAG 2012/13 ,"NACHNAMEßäöuÄÖÜ./, VORNAME",CHAOS COMPUTER CLUB E.V.,"36,00 ","12.345,12 "
29.08.12,29.08.12,Gutschrift,AUFNAHMEGEBUEHR CHAOS-NR.  1234 ,"NACHNAMEßäöuÄÖÜ./, VORNAME",CHAOS COMPUTER CLUB E.V.,"10,00 ","12.345,12 "
29.08.12,29.08.12,Überweisung,KAUTION Adresse 12,CHAOS COMPUTER CLUB E.V.,VERMIETER,"-930,00 ","12.345,12 "
29.08.12,29.08.12,Gutschrift,AUFNAHMEGEBUEHR CHAOS-NR. 1234 ,"NACHNAMEßäöuÄÖÜ./, VORNAME",CHAOS COMPUTER CLUB E.V.,"10,00 ","12.345,12 "
29.08.12,29.08.12,Gutschr.SEPA,Referenz NOTPROVIDED Auftraggeber Identifikation 0293-00822799 Verwendungszweck CHAOS-NR.: 1234 ,VORNAME NACHNAMEßäöuÄÖÜ./,CHAOS COMPUTER CLUB E.V.,"36,00 ","12.345,12 "
29.08.12,29.08.12,Gutschrift,AUFNAHMEGEBÜHR 1234 ,VORNAME NACHNAMEßäöuÄÖÜ./,CHAOS COMPUTER CLUB E.V.,"10,00 ","12.345,12 "
29.08.12,29.08.12,Gutschrift,AUFNAHMEGEBUEHR CHAOS-NR. 1234 ,VORNAME NACHNAMEßäöuÄÖÜ./,CHAOS COMPUTER CLUB E.V.,"10,00 ","12.345,12 "
29.08.12,29.08.12,Gutschrift,1234 JAHRESBEITRAG ,"NACHNAMEßäöuÄÖÜ./, VORNAME",CHAOS COMPUTER CLUB E.V.,"36,00 ","12.345,12 "
29.08.12,29.08.12,Gutschr.SEPA,Referenz NOTPROVIDED Verwendungszweck MITGLIEDSBEITRAG CHAOSNR 1234 ,VORNAME NACHNAMEßäöuÄÖÜ./,CHAOS COMPUTER CLUB E.V.,"72,00 ","12.345,12 "
29.08.12,29.08.12,Dauerauftrag,MIETKOSTENZUSCHUSS ,CHAOS COMPUTER CLUB E.V.,CHAOS COMPUTER CLUB COLOGNE,"-500,00 ","12.345,12 "
29.08.12,29.08.12,Dauerauftrag,MIETKOSTENZUSCHUSS ,CHAOS COMPUTER CLUB E.V.,CHAOS INKL. E.V.,"-150,00 ","12.345,12 "
29.08.12,29.08.12,Gutschrift,2x Jahresbeitrag 1234 Bretschneider ,VORNAME NACHNAMEßäöuÄÖÜ./,CHAOS COMPUTER CLUB E.V.,"72,00 ","12.345,12 "
28.08.12,28.08.12,Gutschrift,AUFNAHMEGEBUER CHAOSNUMMER 1234 ,VORNAME NACHNAMEßäöuÄÖÜ./,CHAOS COMPUTER CLUB E.V.,"10,00 ","12.345,12 "
28.08.12,28.08.12,Gutschrift,CHAOS-NR.     1234 MITGLIEDSCHAFT ,VORNAME NACHNAMEßäöuÄÖÜ./,CHAOS COMPUTER CLUB E.V.,"36,00 ","12.345,12 "
28.08.12,28.08.12,Gutschrift,MITGLIEDSBEITRAG 1234 INKL AUFNAHMEGEBUEHR ,VORNAME NACHNAMEßäöuÄÖÜ./,CHAOS COMPUTER CLUB E.V.,"46,00 ","12.345,12 "
28.08.12,28.08.12,Gutschrift,MITGLIEDSBEITRAG CHAOS-NR. 1234 ,"NACHNAMEßäöuÄÖÜ./, VORNAME",CHAOS COMPUTER CLUB E.V.,"72,00 ","12.345,12 "
28.08.12,28.08.12,Gutschrift,BEITRAG CHAOS NR 1234 NACHNAME ,VORNAME NACHNAMEßäöuÄÖÜ./,CHAOS COMPUTER CLUB E.V.,"36,00 ","12.345,12 "
28.08.12,28.08.12,Gutschrift,CHAOS NR 1234 MITGLIEDSBEITRAG 013 ,"PODEWSKI, THOMAS UND SABINE",CHAOS COMPUTER CLUB E.V.,"72,00 ","12.345,12 "
28.08.12,28.08.12,Gutschrift,MITGLIEDSBEITRAG 1234 ,VORNAME NACHNAMEßäöuÄÖÜ./,CHAOS COMPUTER CLUB E.V.,"36,00 ","12.345,12 "
28.08.12,28.08.12,Gutschrift,MITGLIEDSBEITRAG 1234 ,VORNAME NACHNAMEßäöuÄÖÜ./,CHAOS COMPUTER CLUB E.V.,"36,00 ","12.345,12 "
28.08.12,28.08.12,Gutschrift,CHAOS-NR 1234 ANMELDEGEBUEHR ,VORNAME NACHNAMEßäöuÄÖÜ./,CHAOS COMPUTER CLUB E.V.,"10,00 ","12.345,12 "
28.08.12,28.08.12,Gutschrift,CHAOSNR  1234 -  JAHRESBEIT RAG ,"NACHNAMEßäöuÄÖÜ./, VORNAME",CHAOS COMPUTER CLUB E.V.,"72,00 ","12.345,12 "
28.08.12,28.08.12,Dauergutschrift,CHAOS-NR. 1234 ,VORNAME NACHNAMEßäöuÄÖÜ./,CHAOS COMPUTER CLUB E.V.,"72,00 ","12.345,12 "
28.08.12,28.08.12,Gutschrift,CHAOS NR 1234 MITGLIEDSBEITRAG ,VORNAME NACHNAMEßäöuÄÖÜ./,CHAOS COMPUTER CLUB E.V.,"72,00 ","12.345,12 "
28.08.12,28.08.12,Gutschrift,1234,VORNAME NACHNAMEßäöuÄÖÜ./,CHAOS COMPUTER CLUB E.V.,"46,00 ","12.345,12 "
28.08.12,28.08.12,Gutschrift,CHAOS-NR. 1234 ,VORNAME NACHNAMEßäöuÄÖÜ./,CHAOS COMPUTER CLUB E.V.,"72,00 ","12.345,12 "
28.08.12,28.08.12,Gutschr.SEPA,Referenz NOTPROVIDED Verwendungszweck CHAOS NR. 1234 ,VORNAME NACHNAMEßäöuÄÖÜ./,CHAOS COMPUTER CLUB E.V.,"36,00 ","12.345,12 "
28.08.12,28.08.12,Gutschrift,JAHRESBEITRAG CHAOSNR. 123 ,"NACHNAMEßäöuÄÖÜ./, VORNAME",CHAOS COMPUTER CLUB E.V.,"36,00 ","12.345,12 "
28.08.12,28.08.12,Gutschrift,"CHAOS-NR. 5761 NACHNAME, VORNAME VORNAME",VORNAME NACHNAMEßäöuÄÖÜ./,CHAOS COMPUTER CLUB E.V.,"36,00 ","12.345,12 "
28.08.12,28.08.12,Gutschrift,AG ,"NACHNAMEßäöuÄÖÜ./, VORNAME",CHAOS COMPUTER CLUB E.V.,"10,00 ","12.345,12 "
28.08.12,28.08.12,Gutschrift,CHAOS-NR 1234 JAHRESBEITRAG ,"NACHNAMEßäöuÄÖÜ./, VORNAME",CHAOS COMPUTER CLUB E.V.,"72,00 ","12.345,12 "
28.08.12,28.08.12,Gutschrift,AUFNAHMEGEBUEHR CHAOS-NR.. 1234 ,VORNAME NACHNAMEßäöuÄÖÜ./,CHAOS COMPUTER CLUB E.V.,"10,00 ","12.345,12 "
27.08.12,27.08.12,Gutschrift,1234,VORNAME NACHNAMEßäöuÄÖÜ./,CHAOS COMPUTER CLUB E.V.,"10,00 ","12.345,12 "
27.08.12,27.08.12,Gutschrift,CHAOS-NR.  1234 BEITRAG 2.9.12 BIS 2.9.13 ,VORNAME NACHNAMEßäöuÄÖÜ./,CHAOS COMPUTER CLUB E.V.,"36,00 ","12.345,12 "
27.08.12,27.08.12,Gutschrift,CHAOS NR 1234 VORNAME NACHNAM E,VORNAME NACHNAMEßäöuÄÖÜ./,CHAOS COMPUTER CLUB E.V.,"82,00 ","12.345,12 "
27.08.12,27.08.12,Gutschrift,CHAOS NR 1234 VORNAME NACHNAME ,VORNAME NACHNAMEßäöuÄÖÜ./,CHAOS COMPUTER CLUB E.V.,"82,00 ","12.345,12 "
27.08.12,27.08.12,Gutschrift,CHAOS-NR 1234 AUFNAHMEGEBÜHR ,VORNAME NACHNAMEßäöuÄÖÜ./,CHAOS COMPUTER CLUB E.V.,"10,00 ","12.345,12 "
27.08.12,27.08.12,Dauergutschrift,CHAOSNUMMER 1234 ,"NACHNAMEßäöuÄÖÜ./, VORNAME",CHAOS COMPUTER CLUB E.V.,"72,00 ","12.345,12 "
27.08.12,27.08.12,Gutschrift,JAHRESBEITRAG BIS 04.13 CHAOS-NR. 1234 ,VORNAME NACHNAMEßäöuÄÖÜ./,CHAOS COMPUTER CLUB E.V.,"72,00 ","12.345,12 "
27.08.12,27.08.12,Gutschrift,"CHAOS-NR 1234, VORNAME NACHN AME, MITGLIEDSBEITRAG UND AU FNAHMEGEBUEHR ",VORNAME NACHNAMEßäöuÄÖÜ./,CHAOS COMPUTER CLUB E.V.,"82,00 ","12.345,12 "
27.08.12,27.08.12,Gutschrift,CHAOS-NR. 1234 ,VORNAME NACHNAMEßäöuÄÖÜ./,CHAOS COMPUTER CLUB E.V.,"72,00 ","12.345,12 "
27.08.12,27.08.12,Gutschrift,CHAOS-NR. 1234 ,VORNAME NACHNAMEßäöuÄÖÜ./,CHAOS COMPUTER CLUB E.V.,"72,00 ","12.345,12 "
27.08.12,27.08.12,Dauergutschrift,MITGLIEDSBEITRAG CHAOS-NR.  1234 ,VORNAME NACHNAMEßäöuÄÖÜ./,CHAOS COMPUTER CLUB E.V.,"72,00 ","12.345,12 "
27.08.12,27.08.12,Dauergutschrift,MITGLIEDSBEITRAG 1234 ,"NACHNAMEßäöuÄÖÜ./, VORNAME",CHAOS COMPUTER CLUB E.V.,"72,00 ","12.345,12 "
27.08.12,27.08.12,Dauerauftrag,MIETZUSCHUSS ,CHAOS COMPUTER CLUB E.V.,CHAOS COMPUTER CLUB MÜNCHEN,"-300,00 ","12.345,12 "
27.08.12,27.08.12,Dauergutschrift,ERMÄßIGTER MITGLIEDSBEITRAG CHAOS-NUMMER 1234 ,VORNAME NACHNAMEßäöuÄÖÜ./,CHAOS COMPUTER CLUB E.V.,"36,00 ","12.345,12 "
24.08.12,24.08.12,Gutschrift,"BEITRAG 2012, CHAOS-NR. 123 4 ",VORNAME NACHNAMEßäöuÄÖÜ./,CHAOS COMPUTER CLUB E.V.,"72,00 ","12.345,12 "
24.08.12,24.08.12,Gutschrift,CHAOS-NR 1234 VORNAME NACHNAME ,"NACHNAMEßäöuÄÖÜ./, VORNAME",CHAOS COMPUTER CLUB E.V.,"82,00 ","12.345,12 "
24.08.12,24.08.12,Dauergutschrift,MITGLIEDSBEITRAG 123 ,VORNAME NACHNAMEßäöuÄÖÜ./,CHAOS COMPUTER CLUB E.V.,"3,00 ","12.345,12 "
24.08.12,24.08.12,Gutschrift,CHAOS-NR 1234 ,VORNAME NACHNAMEßäöuÄÖÜ./,CHAOS COMPUTER CLUB E.V.,"36,00 ","12.345,12 "
24.08.12,24.08.12,Dauergutschrift,MITGLIEDSBEITRAG CHAOS-NR.  1234 ,VORNAME NACHNAMEßäöuÄÖÜ./,CHAOS COMPUTER CLUB E.V.,"72,00 ","12.345,12 "
23.08.12,23.08.12,Gutschrift,CHAOS NUMMER 1234 JAHRES-MITGLIEDS-BETRAG ,"NACHNAMEßäöuÄÖÜ./, VORNAME",CHAOS COMPUTER CLUB E.V.,"82,00 ","12.345,12 "
23.08.12,23.08.12,Gutschrift,CHAOSNUMMER . 1234 MITGLIEDSBEITRAG+AUFNAHMEGE ,VORNAME NACHNAMEßäöuÄÖÜ./,CHAOS COMPUTER CLUB E.V.,"82,00 ","12.345,12 "
23.08.12,23.08.12,Gutschrift,Beitrag von 1234 ,VORNAME NACHNAMEßäöuÄÖÜ./,CHAOS COMPUTER CLUB E.V.,"46,00 ","12.345,12 "
23.08.12,23.08.12,Überweisung,9LEAQE/0103803308/37070024 RECHNUNG RE/011/2012 ,CHAOS COMPUTER CLUB E.V.,VORNAME NACHNAMEßäöuÄÖÜ./,"-238,57 ","12.345,12 "
22.08.12,22.08.12,Gutschrift,2 JAHRESBEITRAEGE  CHAOS-NR 1234 ,VORNAME NACHNAMEßäöuÄÖÜ./,CHAOS COMPUTER CLUB E.V.,"144,00 ","12.345,12 "
